A Series of Plots Using NYC Restaurant Inspection Data
…
      Plotly

      Dashboard + Plotly

A Series of Plots Using NYC Restaurant Inspection Data

##Load and Clean Dataset

data("rest_inspec")
rest_inspec=
rest_inspec %>% 
  mutate(grade = forcats::fct_relevel(grade, c("A","B","C","Z","P","Not Yet Graded")), score=as.numeric((score)), camis=as.character(camis)) 
rest_inspec

## # A tibble: 397,584 x 18
##    action boro  building camis critical_flag cuisine_descrip… dba  
##    <chr>  <chr> <chr>    <chr> <chr>         <chr>            <chr>
##  1 Viola… MANH… 425      4152… Not Critical  Italian          SPIN…
##  2 Viola… MANH… 37       4120… Critical      Korean           SHIL…
##  3 Viola… MANH… 15       4107… Not Critical  CafÃ©/Coffee/Tea CITY…
##  4 Viola… MANH… 35       4126… Critical      Korean           MADA…
##  5 Viola… MANH… 1271     5001… Critical      American         THE …
##  6 Viola… MANH… 155      5004… Not Critical  Donuts           DUNK…
##  7 Viola… MANH… 1164     5000… Critical      Salads           SWEE…
##  8 Viola… MANH… 37       4120… Not Critical  Korean           SHIL…
##  9 Viola… MANH… 299      5005… Not Critical  American         PRET…
## 10 Viola… MANH… 53       4039… Not Critical  Korean           HAN …
## # … with 397,574 more rows, and 11 more variables: inspection_date <dttm>,
## #   inspection_type <chr>, phone <chr>, record_date <dttm>, score <dbl>,
## #   street <chr>, violation_code <chr>, violation_description <chr>,
## #   zipcode <int>, grade <fct>, grade_date <dttm>
…
